[{
  "api": "v1",
  "kind": "ConfigMap",
  "namespace": "gitlab",
  "name": "gitlab-gitlab-chart-info",
  "change": "MODIFY"
},{
  "api": "apps",
  "kind": "Deployment",
  "namespace": "gitlab",
  "name": "gitlab-gitlab-pages",
  "change": "MODIFY"
},{
  "api": "apps",
  "kind": "Deployment",
  "namespace": "gitlab",
  "name": "gitlab-gitlab-shell",
  "change": "MODIFY"
},{
  "api": "batch",
  "kind": "Job",
  "namespace": "gitlab",
  "name": "gitlab-gitlab-upgrade-check",
  "change": "MODIFY"
},{
  "api": "apps",
  "kind": "Deployment",
  "namespace": "gitlab",
  "name": "gitlab-webservice-api",
  "change": "MODIFY"
},{
  "api": "apps",
  "kind": "Deployment",
  "namespace": "gitlab",
  "name": "gitlab-webservice-git",
  "change": "MODIFY"
},{
  "api": "apps",
  "kind": "Deployment",
  "namespace": "gitlab",
  "name": "gitlab-webservice-websockets",
  "change": "MODIFY"
},{
  "api": "apps",
  "kind": "Deployment",
  "namespace": "gitlab",
  "name": "gitlab-webservice-web",
  "change": "MODIFY"
}]
